# This file uses centimeters as units for non-parametric coordinates.

mtllib corazon.mtl
g default
v -2.019119 -2.247928 0.000000
v 1.916262 -2.247928 0.000000
v -2.019119 -2.247928 4.457143
v 1.916262 -2.247928 4.457143
v -2.599273 2.805253 4.457143
v 2.496416 2.805253 4.457143
v -2.599273 2.805253 0.000000
v 2.496416 2.805253 0.000000
v 0.020796 2.647386 4.457143
v 0.020796 2.647386 0.000000
v 0.020796 -2.248808 0.000000
v 0.020796 -2.248808 4.457143
v 4.673789 2.805253 0.000000
v 3.597839 0.034286 0.000000
v 4.673789 2.805253 4.457143
v 3.597839 0.034286 4.457143
v -4.776646 2.805253 0.000000
v -3.700696 0.034286 0.000000
v -3.700696 0.034286 4.457143
v -4.776646 2.805253 4.457143
v -1.306339 -2.977178 0.000000
v -0.005367 -3.317015 0.000000
v -0.005367 -3.317015 4.457143
v -1.306339 -2.977178 4.457143
v 1.203482 -2.977178 0.000000
v 1.203482 -2.977178 4.457143
v -0.162318 2.816579 4.457143
v -0.162318 2.816579 0.000000
v -0.875778 -2.248808 0.000000
v -0.577164 -3.317015 0.000000
v -0.577164 -3.317015 4.457143
v -0.875778 -2.248808 4.457143
v 0.271002 2.816579 4.457143
v 0.271002 2.816579 0.000000
v 0.984462 -2.248808 0.000000
v 0.609219 -3.317015 0.000000
v 0.609219 -3.317015 4.457143
v 0.984462 -2.248808 4.457143
v -2.599273 4.010229 4.457143
v -1.118830 4.010229 4.457143
v -1.118830 4.010229 0.000000
v -2.599273 4.010229 0.000000
v -4.776646 4.010375 0.000000
v -4.776646 4.010375 4.457143
v 2.496416 4.010229 4.457143
v 2.496416 4.010229 0.000000
v 4.673789 4.010375 4.457143
v 4.673789 4.010375 0.000000
v 1.289884 4.010229 4.457143
v 1.289884 4.010229 0.000000
v -2.575896 5.346677 3.718124
v -1.679245 4.913662 3.718124
v -1.679245 4.913662 0.739019
v -2.575896 5.346677 0.739019
v -3.938368 5.138240 0.739019
v -3.938368 5.138240 3.718124
v 2.523737 5.348566 3.693877
v 2.523737 5.348566 0.763266
v 3.864028 5.136350 3.693877
v 3.864028 5.136350 0.763266
v 1.821782 4.915428 3.693877
v 1.821782 4.915428 0.763266
vt 0.375000 0.000000
vt 0.625000 0.000000
vt 0.375000 0.250000
vt 0.625000 0.250000
vt 0.375000 0.500000
vt 0.625000 0.500000
vt 0.375000 0.750000
vt 0.625000 0.750000
vt 0.375000 1.000000
vt 0.625000 1.000000
vt 0.875000 0.000000
vt 0.875000 0.250000
vt 0.125000 0.000000
vt 0.125000 0.250000
vt 0.504588 0.500000
vt 0.504588 0.750000
vt 0.504588 0.000000
vt 0.504588 1.000000
vt 0.504588 0.250000
vt 0.625000 0.000000
vt 0.875000 0.000000
vt 0.875000 0.250000
vt 0.625000 0.250000
vt 0.125000 0.000000
vt 0.375000 0.000000
vt 0.375000 0.250000
vt 0.125000 0.250000
vt 0.375000 0.000000
vt 0.504588 0.000000
vt 0.504588 0.250000
vt 0.375000 0.250000
vt 0.625000 0.000000
vt 0.625000 0.250000
vt 0.447632 0.500000
vt 0.447632 0.750000
vt 0.447632 0.000000
vt 0.447632 1.000000
vt 0.447632 0.000000
vt 0.447632 0.250000
vt 0.447632 0.250000
vt 0.565806 0.500000
vt 0.565806 0.750000
vt 0.565806 0.000000
vt 0.565806 1.000000
vt 0.565806 0.000000
vt 0.565806 0.250000
vt 0.565806 0.250000
vt 0.375000 0.500000
vt 0.447632 0.500000
vt 0.447632 0.750000
vt 0.375000 0.750000
vt 0.875000 0.250000
vt 0.875000 0.250000
vt 0.875000 0.000000
vt 0.875000 0.000000
vt 0.125000 0.000000
vt 0.125000 0.000000
vt 0.125000 0.250000
vt 0.125000 0.250000
vt 0.565806 0.500000
vt 0.625000 0.500000
vt 0.625000 0.750000
vt 0.565806 0.750000
vt 0.375000 0.500000
vt 0.447632 0.500000
vt 0.447632 0.750000
vt 0.375000 0.750000
vt 0.875000 0.250000
vt 0.875000 0.250000
vt 0.875000 0.000000
vt 0.875000 0.000000
vt 0.125000 0.000000
vt 0.125000 0.000000
vt 0.125000 0.250000
vt 0.125000 0.250000
vt 0.565806 0.500000
vt 0.625000 0.500000
vt 0.625000 0.750000
vt 0.565806 0.750000
vn -0.422432 -0.906395 0.000000
vn -0.252737 -0.967535 0.000000
vn -0.252737 -0.967535 0.000000
vn -0.422432 -0.906395 0.000000
vn 0.000000 0.000000 1.000000
vn 0.000000 0.000000 1.000000
vn 0.000000 0.000000 1.000000
vn 0.000000 0.000000 1.000000
vn 0.098922 0.995095 0.000000
vn 0.434871 0.900493 0.000000
vn 0.434871 0.900493 0.000000
vn 0.098922 0.995095 0.000000
vn 0.000000 0.000000 -1.000000
vn 0.000000 0.000000 -1.000000
vn 0.000000 0.000000 -1.000000
vn 0.000000 0.000000 -1.000000
vn 0.932192 -0.361964 0.000000
vn 0.965282 -0.261210 0.000000
vn 0.965282 -0.261210 0.000000
vn 0.932192 -0.361964 0.000000
vn -0.965282 -0.261210 0.000000
vn -0.932192 -0.361965 0.000000
vn -0.932192 -0.361965 0.000000
vn -0.965282 -0.261210 0.000000
vn -0.000000 1.000000 0.000000
vn -0.560163 0.828383 0.000000
vn -0.560163 0.828383 0.000000
vn -0.000000 1.000000 0.000000
vn 0.000000 0.000000 -1.000000
vn 0.000000 0.000000 -1.000000
vn -0.000000 0.000000 -1.000000
vn -0.000000 0.000000 -1.000000
vn 0.000000 -1.000000 0.000000
vn 0.000000 -1.000000 0.000000
vn 0.270634 -0.962682 0.000000
vn 0.270634 -0.962682 0.000000
vn 0.000000 0.000000 1.000000
vn 0.000000 0.000000 1.000000
vn -0.000000 0.000000 1.000000
vn -0.000000 0.000000 1.000000
vn -0.000000 0.000000 -1.000000
vn -0.000000 0.000000 -1.000000
vn 0.000000 0.000000 -1.000000
vn 0.000000 0.000000 -1.000000
vn -0.107549 0.994200 0.000000
vn -0.107549 0.994200 0.000000
vn 0.156388 0.987696 0.000000
vn 0.156388 0.987696 0.000000
vn -0.000000 0.000000 1.000000
vn -0.000000 0.000000 1.000000
vn 0.000000 0.000000 1.000000
vn 0.000000 0.000000 1.000000
vn 0.805065 -0.593187 0.000000
vn 0.805065 -0.593187 0.000000
vn 0.805065 -0.593187 0.000000
vn 0.805065 -0.593187 0.000000
vn -0.000000 0.000000 -1.000000
vn -0.000000 0.000000 -1.000000
vn -0.805065 -0.593187 0.000000
vn -0.805065 -0.593187 0.000000
vn -0.805065 -0.593187 0.000000
vn -0.805065 -0.593187 0.000000
vn -0.000000 0.000000 1.000000
vn -0.000000 0.000000 1.000000
vn -0.151226 0.988499 0.000000
vn -0.151226 0.988499 0.000000
vn 0.000000 0.000000 -1.000000
vn 0.000000 0.000000 -1.000000
vn 0.000000 0.000000 1.000000
vn 0.000000 0.000000 1.000000
vn -0.715137 -0.698985 0.000000
vn -0.715137 -0.698985 0.000000
vn -0.715137 -0.698985 0.000000
vn -0.715137 -0.698985 0.000000
vn 0.000000 0.000000 -1.000000
vn 0.000000 0.000000 -1.000000
vn 0.715137 -0.698985 0.000000
vn 0.715137 -0.698985 0.000000
vn 0.715137 -0.698985 0.000000
vn 0.715137 -0.698985 0.000000
vn 0.000000 0.000000 1.000000
vn 0.000000 0.000000 1.000000
vn 0.678634 0.734477 0.000000
vn 0.678634 0.734477 0.000000
vn -0.525123 0.851026 0.000000
vn -0.525123 0.851026 0.000000
vn 0.000000 0.000000 -1.000000
vn 0.496423 -0.868080 0.000000
vn 0.496423 -0.868080 0.000000
vn 0.000000 0.000000 1.000000
vn 0.025020 0.137349 0.990207
vn 0.009270 0.252551 0.967539
vn 0.780361 0.625329 0.000000
vn 0.780361 0.625329 0.000000
vn 0.799945 0.600074 0.000000
vn 0.799945 0.600074 0.000000
vn 0.009270 0.252551 -0.967539
vn 0.025020 0.137349 -0.990207
vn -0.011710 0.199005 -0.979929
vn -0.966955 0.254947 0.000000
vn -0.966955 0.254947 0.000000
vn -0.011710 0.199005 0.979929
vn 0.012485 0.207094 0.978241
vn -0.010839 0.255484 0.966753
vn 0.969939 0.243350 0.000000
vn 0.969939 0.243350 0.000000
vn -0.010839 0.255484 -0.966753
vn 0.012485 0.207094 -0.978241
vn -0.030367 0.133801 0.990543
vn -0.030367 0.133801 -0.990543
vn -0.760592 0.649230 0.000000
vn -0.760592 0.649230 0.000000
vn -0.788563 0.614954 0.000000
vn -0.788563 0.614954 0.000000
vn 0.102906 0.564916 0.818707
vn 0.015875 0.538218 0.842656
vn 0.849782 0.527135 0.000000
vn 0.849782 0.527135 0.000000
vn 0.015875 0.538218 -0.842656
vn 0.102906 0.564916 -0.818707
vn -0.030715 0.521989 -0.852399
vn -0.802595 0.596524 0.000000
vn -0.802595 0.596524 0.000000
vn -0.030715 0.521989 0.852399
vn 0.032175 0.533696 0.845064
vn -0.013079 0.548122 0.836296
vn 0.811856 0.583858 0.000000
vn 0.811856 0.583858 0.000000
vn -0.013079 0.548122 -0.836296
vn 0.032175 0.533696 -0.845064
vn -0.131603 0.579865 0.804014
vn -0.131603 0.579865 -0.804013
vn -0.862172 0.506615 0.000000
vn -0.862172 0.506615 0.000000
s 1
g pCube1
usemtl initialShadingGroup
f 21/28/1 30/38/2 31/39/3 24/31/4
s 2
f 3/3/5 32/40/6 27/34/7 5/5/8
s 3
f 51/64/9 52/65/10 53/66/11 54/67/12
s 4
f 7/7/13 28/35/14 29/37/15 1/9/16
s 5
f 14/20/17 13/21/18 15/22/19 16/23/20
s 6
f 17/24/21 18/25/22 19/26/23 20/27/24
s 7
f 9/15/25 33/41/26 34/42/27 10/16/28
s 4
f 11/18/29 10/16/30 34/42/31 35/44/32
s 1
f 23/30/33 22/29/34 36/45/35 37/46/36
s 2
f 9/15/37 12/19/38 38/47/39 33/41/40
s 4
f 2/2/41 8/11/42 13/21/43 14/20/44
s 8
f 58/71/45 57/68/46 59/69/47 60/70/48
s 2
f 6/12/49 4/4/50 16/23/51 15/22/52
s off
f 4/4/53 2/2/54 14/20/55 16/23/56
s 4
f 7/13/13 1/1/16 18/25/57 17/24/58
s off
f 1/1/59 3/3/60 19/26/61 18/25/62
s 2
f 3/3/5 5/14/8 20/27/63 19/26/64
s 3
f 51/75/9 54/72/12 55/73/65 56/74/66
s 4
f 1/1/16 29/36/15 30/38/67 21/28/68
s 2
f 32/40/6 3/3/5 24/31/69 31/39/70
s off
f 3/3/71 1/1/72 21/28/73 24/31/74
s 4
f 11/17/29 35/43/32 36/45/75 22/29/76
s off
f 2/2/77 4/4/78 26/33/79 25/32/80
s 2
f 38/47/39 12/19/38 23/30/81 37/46/82
s 7
f 27/34/83 9/15/25 10/16/28 28/35/84
s 4
f 29/37/15 28/35/14 10/16/30 11/18/29
f 30/38/67 29/36/15 11/17/29 22/29/76
s 1
f 31/39/3 30/38/2 22/29/34 23/30/33
s 2
f 12/19/38 32/40/6 31/39/70 23/30/81
f 27/34/7 32/40/6 12/19/38 9/15/37
s 8
f 61/76/85 57/77/46 58/78/45 62/79/86
s 4
f 35/44/32 34/42/31 8/8/42 2/10/41
f 36/45/75 35/43/32 2/2/41 25/32/87
s 1
f 37/46/36 36/45/35 25/32/88 26/33/89
s 2
f 4/4/50 38/47/39 37/46/82 26/33/90
f 33/41/40 38/47/39 4/4/50 6/6/49
f 5/5/8 27/34/7 40/49/91 39/48/92
s 9
f 27/34/93 28/35/94 41/50/95 40/49/96
s 4
f 28/35/14 7/7/13 42/51/97 41/50/98
f 7/12/13 17/22/58 43/53/99 42/52/97
s 6
f 17/22/21 20/21/24 44/54/100 43/53/101
s 2
f 20/21/63 5/11/8 39/55/92 44/54/102
f 6/13/49 15/24/52 47/57/103 45/56/104
s 5
f 15/24/19 13/27/18 48/58/105 47/57/106
s 4
f 13/27/43 8/14/42 46/59/107 48/58/108
s 2
f 33/41/40 6/6/49 45/61/104 49/60/109
s 4
f 8/8/42 34/42/31 50/63/110 46/62/107
s 10
f 34/42/111 33/41/112 49/60/113 50/63/114
s 2
f 39/48/92 40/49/91 52/65/115 51/64/116
s 9
f 40/49/96 41/50/95 53/66/117 52/65/118
s 4
f 41/50/98 42/51/97 54/67/119 53/66/120
f 42/52/97 43/53/99 55/69/121 54/68/119
s 6
f 43/53/101 44/54/100 56/70/122 55/69/123
s 2
f 44/54/102 39/55/92 51/71/116 56/70/124
f 45/56/104 47/57/103 59/73/125 57/72/126
s 5
f 47/57/106 48/58/105 60/74/127 59/73/128
s 4
f 48/58/108 46/59/107 58/75/129 60/74/130
s 2
f 49/60/109 45/61/104 57/77/126 61/76/131
s 4
f 46/62/107 50/63/110 62/79/132 58/78/129
s 10
f 50/63/114 49/60/113 61/76/133 62/79/134
